Chapter 6 Working with data | A stats book
…
we can explore the data that is in R with different functions.

just enter the name of the object spits out some info

home_range

## # A tibble: 748 x 15
##    Family Genus CommonName Species `Species (ITIS)` HomeRange_ha Low_range
##    <chr>  <chr> <chr>      <chr>   <chr>                   <dbl> <chr>    
##  1 Cerco~ Alle~ Allen_s_S~ Alleno~ Allenopithecus_~        NA    <NA>     
##  2 Cheir~ Allo~ Hairy_ear~ Alloce~ Allocebus_trich~        25.8  16       
##  3 Cerco~ Allo~ L_Hoest_s~ Alloch~ Allochrocebus_l~       117.   NI       
##  4 Cerco~ Allo~ L_Hoest_s~ Alloch~ Allochrocebus_l~        61.3  51.81    
##  5 Cerco~ Allo~ Preuss_s_~ Alloch~ Allochrocebus_p~        NA    <NA>     
##  6 Cerco~ Allo~ Sun_taile~ Alloch~ Allochrocebus_s~        NA    <NA>     
##  7 Ateli~ Alou~ Ursine_Re~ Alouat~ Alouatta_arctoi~         7.52 NI       
##  8 Ateli~ Alou~ Ursine_Re~ Alouat~ Alouatta_arctoi~        14.5  4        
##  9 Ateli~ Alou~ Ursine_Re~ Alouat~ Alouatta_arctoi~         5.5  4        
## 10 Ateli~ Alou~ Red_hande~ Alouat~ Alouatta_belzeb~         7.12 4.75     
## # ... with 738 more rows, and 8 more variables: High_range <chr>,
## #   N_groups <chr>, Mean_individuals <chr>, Method <chr>,
## #   Alternative_HomeRange_ha <chr>, Alternative_HomeRange_method <chr>,
## #   Study_duration_months <chr>, Refs <dbl>

print(home_range)

## # A tibble: 748 x 15
##    Family Genus CommonName Species `Species (ITIS)` HomeRange_ha Low_range
##    <chr>  <chr> <chr>      <chr>   <chr>                   <dbl> <chr>    
##  1 Cerco~ Alle~ Allen_s_S~ Alleno~ Allenopithecus_~        NA    <NA>     
##  2 Cheir~ Allo~ Hairy_ear~ Alloce~ Allocebus_trich~        25.8  16       
##  3 Cerco~ Allo~ L_Hoest_s~ Alloch~ Allochrocebus_l~       117.   NI       
##  4 Cerco~ Allo~ L_Hoest_s~ Alloch~ Allochrocebus_l~        61.3  51.81    
##  5 Cerco~ Allo~ Preuss_s_~ Alloch~ Allochrocebus_p~        NA    <NA>     
##  6 Cerco~ Allo~ Sun_taile~ Alloch~ Allochrocebus_s~        NA    <NA>     
##  7 Ateli~ Alou~ Ursine_Re~ Alouat~ Alouatta_arctoi~         7.52 NI       
##  8 Ateli~ Alou~ Ursine_Re~ Alouat~ Alouatta_arctoi~        14.5  4        
##  9 Ateli~ Alou~ Ursine_Re~ Alouat~ Alouatta_arctoi~         5.5  4        
## 10 Ateli~ Alou~ Red_hande~ Alouat~ Alouatta_belzeb~         7.12 4.75     
## # ... with 738 more rows, and 8 more variables: High_range <chr>,
## #   N_groups <chr>, Mean_individuals <chr>, Method <chr>,
## #   Alternative_HomeRange_ha <chr>, Alternative_HomeRange_method <chr>,
## #   Study_duration_months <chr>, Refs <dbl>
…
look at the help for count and figure out how to make it order the output from large to small

add_count adds a new col at the end of the dataframe with these data

 add_count(home_range, Family, name = "family_count") 

## # A tibble: 748 x 16
##    Family Genus CommonName Species `Species (ITIS)` HomeRange_ha Low_range
##    <chr>  <chr> <chr>      <chr>   <chr>                   <dbl> <chr>    
##  1 Cerco~ Alle~ Allen_s_S~ Alleno~ Allenopithecus_~        NA    <NA>     
##  2 Cheir~ Allo~ Hairy_ear~ Alloce~ Allocebus_trich~        25.8  16       
##  3 Cerco~ Allo~ L_Hoest_s~ Alloch~ Allochrocebus_l~       117.   NI       
##  4 Cerco~ Allo~ L_Hoest_s~ Alloch~ Allochrocebus_l~        61.3  51.81    
##  5 Cerco~ Allo~ Preuss_s_~ Alloch~ Allochrocebus_p~        NA    <NA>     
##  6 Cerco~ Allo~ Sun_taile~ Alloch~ Allochrocebus_s~        NA    <NA>     
##  7 Ateli~ Alou~ Ursine_Re~ Alouat~ Alouatta_arctoi~         7.52 NI       
##  8 Ateli~ Alou~ Ursine_Re~ Alouat~ Alouatta_arctoi~        14.5  4        
##  9 Ateli~ Alou~ Ursine_Re~ Alouat~ Alouatta_arctoi~         5.5  4        
## 10 Ateli~ Alou~ Red_hande~ Alouat~ Alouatta_belzeb~         7.12 4.75     
## # ... with 738 more rows, and 9 more variables: High_range <chr>,
## #   N_groups <chr>, Mean_individuals <chr>, Method <chr>,
## #   Alternative_HomeRange_ha <chr>, Alternative_HomeRange_method <chr>,
## #   Study_duration_months <chr>, Refs <dbl>, family_count <int>
…
This is sometimes easier when you have a long code and want to make it readable

6.5.2.2 Filter

this function searches for rows that match the arguement. For example, lets say you want all the speices in the genus Allenopithecus

note the == rather than =

filter(home_range, Genus == "Macaca")

## # A tibble: 38 x 15
##    Family Genus CommonName Species `Species (ITIS)` HomeRange_ha Low_range
##    <chr>  <chr> <chr>      <chr>   <chr>                   <dbl> <chr>    
##  1 Cerco~ Maca~ Stump_tai~ Macaca~ Macaca_arctoides        462.  NI       
##  2 Cerco~ Maca~ Assamese_~ Macaca~ Macaca_assamens~        434.  352      
##  3 Cerco~ Maca~ Assamese_~ Macaca~ Macaca_assamens~        208.  65.6     
##  4 Cerco~ Maca~ Assamese_~ Macaca~ Macaca_assamens~         59   53       
##  5 Cerco~ Maca~ Taiwanese~ Macaca~ Macaca_cyclopis         120   NI       
##  6 Cerco~ Maca~ Taiwanese~ Macaca~ Macaca_cyclopis         200   NI       
##  7 Cerco~ Maca~ Taiwanese~ Macaca~ Macaca_cyclopis          97   NI       
##  8 Cerco~ Maca~ Long_tail~ Macaca~ Macaca_fascicul~        157   14       
##  9 Cerco~ Maca~ Japanese_~ Macaca~ Macaca_fuscata           24.0 3.9      
## 10 Cerco~ Maca~ Japanese_~ Macaca~ Macaca_fuscata          366   NI       
## # ... with 28 more rows, and 8 more variables: High_range <chr>,
## #   N_groups <chr>, Mean_individuals <chr>, Method <chr>,
## #   Alternative_HomeRange_ha <chr>, Alternative_HomeRange_method <chr>,
## #   Study_duration_months <chr>, Refs <dbl>

#or

home_range %>% filter(Genus == "Macaca")

## # A tibble: 38 x 15
##    Family Genus CommonName Species `Species (ITIS)` HomeRange_ha Low_range
##    <chr>  <chr> <chr>      <chr>   <chr>                   <dbl> <chr>    
##  1 Cerco~ Maca~ Stump_tai~ Macaca~ Macaca_arctoides        462.  NI       
##  2 Cerco~ Maca~ Assamese_~ Macaca~ Macaca_assamens~        434.  352      
##  3 Cerco~ Maca~ Assamese_~ Macaca~ Macaca_assamens~        208.  65.6     
##  4 Cerco~ Maca~ Assamese_~ Macaca~ Macaca_assamens~         59   53       
##  5 Cerco~ Maca~ Taiwanese~ Macaca~ Macaca_cyclopis         120   NI       
##  6 Cerco~ Maca~ Taiwanese~ Macaca~ Macaca_cyclopis         200   NI       
##  7 Cerco~ Maca~ Taiwanese~ Macaca~ Macaca_cyclopis          97   NI       
##  8 Cerco~ Maca~ Long_tail~ Macaca~ Macaca_fascicul~        157   14       
##  9 Cerco~ Maca~ Japanese_~ Macaca~ Macaca_fuscata           24.0 3.9      
## 10 Cerco~ Maca~ Japanese_~ Macaca~ Macaca_fuscata          366   NI       
## # ... with 28 more rows, and 8 more variables: High_range <chr>,
## #   N_groups <chr>, Mean_individuals <chr>, Method <chr>,
## #   Alternative_HomeRange_ha <chr>, Alternative_HomeRange_method <chr>,
## #   Study_duration_months <chr>, Refs <dbl>

You can do more complex filters too:

lets say you want two genra

filter(home_range, Genus == "Macaca" | Genus == "Allochrocebus")

## # A tibble: 42 x 15
##    Family Genus CommonName Species `Species (ITIS)` HomeRange_ha Low_range
##    <chr>  <chr> <chr>      <chr>   <chr>                   <dbl> <chr>    
##  1 Cerco~ Allo~ L_Hoest_s~ Alloch~ Allochrocebus_l~        117.  NI       
##  2 Cerco~ Allo~ L_Hoest_s~ Alloch~ Allochrocebus_l~         61.3 51.81    
##  3 Cerco~ Allo~ Preuss_s_~ Alloch~ Allochrocebus_p~         NA   <NA>     
##  4 Cerco~ Allo~ Sun_taile~ Alloch~ Allochrocebus_s~         NA   <NA>     
##  5 Cerco~ Maca~ Stump_tai~ Macaca~ Macaca_arctoides        462.  NI       
##  6 Cerco~ Maca~ Assamese_~ Macaca~ Macaca_assamens~        434.  352      
##  7 Cerco~ Maca~ Assamese_~ Macaca~ Macaca_assamens~        208.  65.6     
##  8 Cerco~ Maca~ Assamese_~ Macaca~ Macaca_assamens~         59   53       
##  9 Cerco~ Maca~ Taiwanese~ Macaca~ Macaca_cyclopis         120   NI       
## 10 Cerco~ Maca~ Taiwanese~ Macaca~ Macaca_cyclopis         200   NI       
## # ... with 32 more rows, and 8 more variables: High_range <chr>,
## #   N_groups <chr>, Mean_individuals <chr>, Method <chr>,
## #   Alternative_HomeRange_ha <chr>, Alternative_HomeRange_method <chr>,
## #   Study_duration_months <chr>, Refs <dbl>
…
how would you find HomeRange_ha greater than 75 and then save that to a new dataset. look at the dplyr help to figure this out

over75 <- filter(home_range, HomeRange_ha > 75)

6.5.2.3 Select

this verb searches the dataframe and only returns cols that you ask for. For example. lets say i just want the speceis and home range

home_range %>% select(Species, HomeRange_ha)

## # A tibble: 748 x 2
##    Species                     HomeRange_ha
##    <chr>                              <dbl>
##  1 Allenopithecus_nigroviridis        NA   
##  2 Allocebus_trichotis                25.8 
##  3 Allochrocebus_lhoesti             117.  
##  4 Allochrocebus_lhoesti              61.3 
##  5 Allochrocebus_preussi              NA   
##  6 Allochrocebus_solatus              NA   
##  7 Alouatta_arctoidea                  7.52
##  8 Alouatta_arctoidea                 14.5 
##  9 Alouatta_arctoidea                  5.5 
## 10 Alouatta_belzebul                   7.12
## # ... with 738 more rows

This is useful when you want to look at only some things

select has a lot of arguments. HOw would you select all the cols that habe the startes with the prefix “Alt”

YOu can also chain verbs together

home_range %>% filter(Genus == "Macaca") %>% select(Species)

## # A tibble: 38 x 1
##    Species            
##    <chr>              
##  1 Macaca_arctoides   
##  2 Macaca_assamensis  
##  3 Macaca_assamensis  
##  4 Macaca_assamensis  
##  5 Macaca_cyclopis    
##  6 Macaca_cyclopis    
##  7 Macaca_cyclopis    
##  8 Macaca_fascicularis
##  9 Macaca_fuscata     
## 10 Macaca_fuscata     
## # ... with 28 more rows

6.5.2.4 arrange

this sorts the data

home_range %>% arrange(HomeRange_ha)

## # A tibble: 748 x 15
##    Family Genus CommonName Species `Species (ITIS)` HomeRange_ha Low_range
##    <chr>  <chr> <chr>      <chr>   <chr>                   <dbl> <chr>    
##  1 Lepil~ Lepi~ Weasel_Sp~ Lepile~ Lepilemur_muste~        0.3   NI       
##  2 Lepil~ Lepi~ Petter_s_~ Lepile~ Lepilemur_pette~        0.3   NI       
##  3 Cheir~ Micr~ Gray_brow~ Microc~ Microcebus_gris~        0.3   NI       
##  4 Calli~ Cebu~ Pygmy_Mar~ Cebuel~ Cebuella_pygmaea        0.34  NI       
##  5 Cheir~ Micr~ Goodman_s~ Microc~ Microcebus_lehi~        0.35  0.1      
##  6 Lepil~ Lepi~ White_foo~ Lepile~ Lepilemur_leuco~        0.5   NI       
##  7 Lepil~ Lepi~ Small_too~ Lepile~ Lepilemur_micro~        0.5   NI       
##  8 Cheir~ Micr~ Golden_br~ Microc~ Microcebus_rave~        0.570 0.54     
##  9 Cheir~ Micr~ Gray_brow~ Microc~ Microcebus_gris~        0.66  0.43     
## 10 Lepil~ Lepi~ Sahafary_~ Lepile~ Lepilemur_septe~        0.7   NI       
## # ... with 738 more rows, and 8 more variables: High_range <chr>,
## #   N_groups <chr>, Mean_individuals <chr>, Method <chr>,
## #   Alternative_HomeRange_ha <chr>, Alternative_HomeRange_method <chr>,
## #   Study_duration_months <chr>, Refs <dbl>

if you put a minus sign in from of the variable it will organiz in descnein order

home_range %>% arrange(-HomeRange_ha)

## # A tibble: 748 x 15
##    Family Genus CommonName Species `Species (ITIS)` HomeRange_ha Low_range
##    <chr>  <chr> <chr>      <chr>   <chr>                   <dbl> <chr>    
##  1 Cerco~ Mand~ Mandrill   Mandri~ Mandrillus_sphi~        18147 NI       
##  2 Cerco~ Semn~ Malabar_S~ Semnop~ Semnopithecus_h~        12328 NI       
##  3 Cerco~ Semn~ Nepal_Sac~ Semnop~ Semnopithecus_s~         6987 NI       
##  4 Cerco~ Eryt~ Patas_Mon~ Erythr~ Erythrocebus_pa~         5200 NI       
##  5 Cerco~ Papio Olive_Bab~ Papio_~ Papio_anubis             4357 NI       
##  6 Cerco~ Mand~ Mandrill   Mandri~ Mandrillus_sphi~         4000 NI       
##  7 Homin~ Pan   Bonobo     Pan_pa~ Pan_paniscus             4000 2200     
##  8 Cerco~ Rhin~ Guizhou_S~ Rhinop~ Rhinopithecus_b~         3450 NI       
##  9 Cerco~ Papio Guinea_Ba~ Papio_~ Papio_papio              3250 2000     
## 10 Homin~ Gori~ Eastern_G~ Gorill~ Gorilla_beringei         3060 2110     
## # ... with 738 more rows, and 8 more variables: High_range <chr>,
## #   N_groups <chr>, Mean_individuals <chr>, Method <chr>,
## #   Alternative_HomeRange_ha <chr>, Alternative_HomeRange_method <chr>,
## #   Study_duration_months <chr>, Refs <dbl>

#or
home_range %>% arrange(desc(HomeRange_ha))

## # A tibble: 748 x 15
##    Family Genus CommonName Species `Species (ITIS)` HomeRange_ha Low_range
##    <chr>  <chr> <chr>      <chr>   <chr>                   <dbl> <chr>    
##  1 Cerco~ Mand~ Mandrill   Mandri~ Mandrillus_sphi~        18147 NI       
##  2 Cerco~ Semn~ Malabar_S~ Semnop~ Semnopithecus_h~        12328 NI       
##  3 Cerco~ Semn~ Nepal_Sac~ Semnop~ Semnopithecus_s~         6987 NI       
##  4 Cerco~ Eryt~ Patas_Mon~ Erythr~ Erythrocebus_pa~         5200 NI       
##  5 Cerco~ Papio Olive_Bab~ Papio_~ Papio_anubis             4357 NI       
##  6 Cerco~ Mand~ Mandrill   Mandri~ Mandrillus_sphi~         4000 NI       
##  7 Homin~ Pan   Bonobo     Pan_pa~ Pan_paniscus             4000 2200     
##  8 Cerco~ Rhin~ Guizhou_S~ Rhinop~ Rhinopithecus_b~         3450 NI       
##  9 Cerco~ Papio Guinea_Ba~ Papio_~ Papio_papio              3250 2000     
## 10 Homin~ Gori~ Eastern_G~ Gorill~ Gorilla_beringei         3060 2110     
## # ... with 738 more rows, and 8 more variables: High_range <chr>,
## #   N_groups <chr>, Mean_individuals <chr>, Method <chr>,
## #   Alternative_HomeRange_ha <chr>, Alternative_HomeRange_method <chr>,
## #   Study_duration_months <chr>, Refs <dbl>
…
## 
## Attaching package: 'lubridate'

## The following objects are masked from 'package:data.table':
## 
##     hour, isoweek, mday, minute, month, quarter, second, wday,
##     week, yday, year

## The following object is masked from 'package:base':
## 
##     date

squirrel %>% mutate(parsed_date = mdy(date))

## # A tibble: 3,023 x 36
##        x     y unique_squirrel~ hectare shift   date hectare_squirre~ age  
##    <dbl> <dbl> <chr>            <chr>   <chr>  <dbl>            <dbl> <chr>
##  1 -74.0  40.8 13A-PM-1014-04   13A     PM    1.01e7                4 <NA> 
##  2 -74.0  40.8 15F-PM-1010-06   15F     PM    1.01e7                6 Adult
##  3 -74.0  40.8 19C-PM-1018-02   19C     PM    1.02e7                2 Adult
##  4 -74.0  40.8 21B-AM-1019-04   21B     AM    1.02e7                4 <NA> 
##  5 -74.0  40.8 23A-AM-1018-02   23A     AM    1.02e7                2 Juve~
##  6 -74.0  40.8 38H-PM-1012-01   38H     PM    1.01e7                1 Adult
##  7 -74.0  40.8 3D-AM-1006-06    03D     AM    1.01e7                6 <NA> 
##  8 -74.0  40.8 42C-AM-1007-02   42C     AM    1.01e7                2 <NA> 
##  9 -74.0  40.8 9A-PM-1010-02    09A     PM    1.01e7                2 Adult
## 10 -74.0  40.8 9B-AM-1010-04    09B     AM    1.01e7                4 <NA> 
## # ... with 3,013 more rows, and 28 more variables:
## #   primary_fur_color <chr>, highlight_fur_color <chr>,
## #   combination_of_primary_and_highlight_color <chr>, color_notes <chr>,
## #   location <chr>, above_ground_sighter_measurement <chr>,
## #   specific_location <chr>, running <lgl>, chasing <lgl>, climbing <lgl>,
## #   eating <lgl>, foraging <lgl>, other_activities <chr>, kuks <lgl>,
## #   quaas <lgl>, moans <lgl>, tail_flags <lgl>, tail_twitches <lgl>,
## #   approaches <lgl>, indifferent <lgl>, runs_from <lgl>,
## #   other_interactions <chr>, zip_codes <dbl>, community_districts <dbl>,
## #   borough_boundaries <dbl>, city_council_districts <dbl>,
## #   police_precincts <dbl>, parsed_date <date>

squirrel <- squirrel %>% mutate(date = mdy(date))
squirrel %>% select(other_interactions) %>% filter(!is.na(other_interactions)) %>%  View()

squirrel %>% count(other_interactions, sort=T)

## # A tibble: 198 x 2
##    other_interactions                    n
##    <chr>                             <int>
##  1 <NA>                               2783
##  2 runs from (dog)                       9
##  3 curious                               6
##  4 runs from (me)                        5
##  5 me                                    4
##  6 stared                                4
##  7 avoided people                        3
##  8 ran up tree when approached           3
##  9 could not get close due to fences     2
## 10 dog                                   2
## # ... with 188 more rows

squirrel %>% count(other_activities, sort=T)

## # A tibble: 308 x 2
##    other_activities     n
##    <chr>            <int>
##  1 <NA>              2586
##  2 digging             19
##  3 sitting             16
##  4 walking             14
##  5 burying             12
##  6 playing             11
##  7 jumping              6
##  8 grooming             5
##  9 cleaning             4
## 10 hopping              4
## # ... with 298 more rows
